<?xml version="1.0" encoding="UTF-8"?>
<COLLADA xmlns="http://www.collada.org/2005/11/COLLADASchema" version="1.4.1">
 <asset>
  <contributor>
   <authoring_tool>SceneKit Collada Exporter v1.0</authoring_tool>
  </contributor>
  <created>2018-06-09T13:22:10Z</created>
  <modified>2018-06-09T13:22:10Z</modified>
  <unit meter="1.000000"/>
  <up_axis>Y_UP</up_axis>
 </asset>
 <library_animations>
  <animation id="id-anim-4" name="id-anim-4"/>
  <animation id="id-anim-5" name="id-anim-5">
   <animation id="keyframedAnimations1">
    <source id="genericSource2">
     <float_array id="id-anim-53-array" count="107">0 0.133814 0.167267 0.200721 0.234174 0.267627 0.301081 0.334534 0.367988 0.401441 0.434894 0.468348 0.501801 0.535255 0.568708 0.602162 0.635615 0.669068 0.702522 0.735975 0.769429 0.802882 0.836336 0.869789 0.903242 0.936696 0.970149 1.0036 1.03706 1.07051 1.10396 1.13742 1.17087 1.20432 1.23778 1.27123 1.30468 1.33814 1.37159 1.40504 1.4385 1.47195 1.5054 1.53886 1.57231 1.60576 1.63922 1.67267 1.70612 1.73958 1.77303 1.80648 1.83994 1.87339 1.90685 1.9403 1.97375 2.00721 2.04066 2.07411 2.10757 2.14102 2.17447 2.20793 2.24138 2.27483 2.30829 2.34174 2.37519 2.40865 2.4421 2.47555 2.50901 2.67627 2.70973 2.74318 2.77663 2.81009 2.84354 2.87699 2.91045 2.9439 2.97735 3.01081 3.04426 3.07771 3.11117 3.14462 3.17808 3.21153 3.24498 3.27844 3.31189 3.34534 3.3788 3.41225 3.4457 3.47916 3.51261 3.54606 3.57952 3.61297 3.64642 3.67988 3.71333 3.74678 4.48276 </float_array>
     <technique_common>
      <accessor source="#id-anim-53-array" count="107" stride="1">
       <param name="TIME" type="float"/>
      </accessor>
     </technique_common>
    </source>
    <source id="genericSource4">
     <float_array id="id-anim-55-array" count="1712">1 0 0 -1.40263 0 1.78814e-07 -1 7.93479 -0 1 1.78814e-07 2.65912 0 0 0 1 1 0 0 -1.40263 0 1.78814e-07 -1 7.93479 -0 1 1.78814e-07 2.65912 0 0 0 1 1 0 0 -1.40258 0 1.78814e-07 -1 7.91839 -0 1 1.78814e-07 2.66214 0 0 0 1 1 0 0 -1.40212 0 1.78814e-07 -1 7.86868 -0 1 1.78814e-07 2.67129 0 0 0 1 1 0 0 -1.40076 0 1.78814e-07 -1 7.79914 -0 1 1.78814e-07 2.68409 0 0 0 1 1 0 0 -1.39838 0 1.78814e-07 -1 7.73435 -0 1 1.78814e-07 2.69601 0 0 0 1 1 0 0 -1.39489 0 1.78814e-07 -1 7.67173 -0 1 1.78814e-07 2.70754 0 0 0 1 1 0 0 -1.38926 0 1.78814e-07 -1 7.60179 -0 1 1.78814e-07 2.72041 0 0 0 1 1 0 0 -1.38037 0 1.78814e-07 -1 7.54108 -0 1 1.78814e-07 2.73158 0 0 0 1 1 0 0 -1.36834 0 1.78814e-07 -1 7.50998 -0 1 1.78814e-07 2.73731 0 0 0 1 0.999992 -1.16415e-10 -0.0030662 -1.35406 -0.0030662 -1.45042e-07 -0.999992 7.51863 -1.16415e-10 1 -1.45041e-07 2.73697 0 0 0 1 0.999827 -9.31323e-10 -0.0160551 -1.33736 -0.0160551 -1.97651e-07 -0.999827 7.5747 -9.31282e-10 1 -1.97643e-07 2.73024 0 0 0 1 0.998747 3.72529e-09 -0.0459618 -1.31725 -0.0459618 2.03785e-07 -0.998747 7.67095 3.72456e-09 1 2.03745e-07 2.71628 0 0 0 1 0.994526 0 -0.0988975 -1.29372 -0.0988975 -6.0536e-09 -0.994526 7.78129 0 1 -6.05015e-09 2.69637 0 0 0 1 0.982563 1.49012e-08 -0.179165 -1.26746 -0.179165 2.58908e-07 -0.982563 7.89487 1.48827e-08 1 2.58588e-07 2.67241 0 0 0 1 0.955842 1.49012e-08 -0.286577 -1.23831 -0.286577 3.65078e-07 -0.955842 8.0227 1.48695e-08 1 3.64304e-07 2.64386 0 0 0 1 0.906533 -4.47035e-08 -0.414959 -1.20581 -0.414959 -2.5332e-07 -0.906533 8.15949 -4.4569e-08 1 -2.52558e-07 2.60958 0 0 0 1 0.828777 5.96046e-08 -0.553008 -1.17077 -0.553008 4.32134e-07 -0.828777 8.27934 5.93864e-08 1 4.30551e-07 2.57079 0 0 0 1 0.697761 -2.98023e-08 -0.705023 -1.12991 -0.705023 -5.96046e-08 -0.697761 8.36104 -2.95618e-08 1 -5.91237e-08 2.52264 0 0 0 1 0.458861 5.96046e-08 -0.870169 -1.08721 -0.870169 1.78814e-07 -0.458861 8.40579 5.86356e-08 1 1.75907e-07 2.47084 0 0 0 1 0.0961242 5.96046e-08 -0.974666 -1.06478 -0.974666 1.19209e-07 -0.0961242 8.44614 5.83765e-08 1 1.16753e-07 2.4625 0 0 0 1 -0.321696 2.98023e-08 -0.92354 -1.06191 -0.92354 1.19209e-07 0.321696 8.50607 2.91456e-08 1 1.16582e-07 2.51264 0 0 0 1 -0.692336 -0.0166619 -0.695136 -1.04734 -0.694403 -0.01715 0.693057 8.58753 -0.0234688 0.998977 0.000304183 2.54407 0 0 0 1 -0.894569 -0.070749 -0.441293 -1.00453 -0.43845 -0.0524939 0.897221 8.57033 -0.0866428 0.996112 0.0159401 2.54001 0 0 0 1 -0.894569 -0.070749 -0.441293 -0.989313 -0.43845 -0.0524939 0.897221 8.07639 -0.0866428 0.996112 0.0159401 2.59594 0 0 0 1 -0.891111 -0.0725915 -0.447628 -1.0051 -0.44458 -0.0546202 0.893925 7.25828 -0.0893415 0.995844 0.0164008 2.6486 0 0 0 1 -0.852901 -0.0894251 -0.50704 -0.933324 -0.501593 -0.0756355 0.85765 6.15267 -0.115064 0.992567 0.0196733 2.64158 0 0 0 1 -0.601376 -0.112629 -0.552592 -0.774699 -0.532387 -0.102767 0.623738 4.82433 -0.127035 0.963859 0.00193149 2.62592 0 0 0 1 0.139685 0.556206 0.76108 -0.570397 0.910397 -0.186471 -0.0480705 3.50426 0.11542 0.797686 -0.541919 2.60545 0 0 0 1 -0.975608 0.13882 0.166852 -0.363442 0.178311 0.0747006 0.980633 2.40784 0.12367 0.987415 -0.0976448 2.5842 0 0 0 1 -0.996169 0.0829915 0.027273 -0.189025 0.0321464 0.0579635 0.997794 1.69002 0.0812277 0.994862 -0.0604094 2.56554 0 0 0 1 -0.997531 0.070087 -0.00142983 -0.0711216 0.00233207 0.0535639 0.998555 1.44057 0.0700623 0.9961 -0.0535949 2.55179 0 0 0 1 -0.997619 0.0676657 0.0128708 0.00947106 0.0164764 0.0530007 0.998453 1.48086 0.0668789 0.996299 -0.0539888 2.54181 0 0 0 1 -0.996024 0.0665097 0.0579095 0.0808311 0.0613883 0.0515131 0.996704 1.61218 0.0633074 0.996455 -0.055391 2.5335 0 0 0 1 -0.987974 0.0663721 0.137217 0.143101 0.140574 0.0488646 0.988522 1.83132 0.0589053 0.996597 -0.0576072 2.52682 0 0 0 1 -0.963524 0.0670472 0.255332 0.196159 0.258554 0.0447279 0.963956 2.13561 0.0532102 0.996745 -0.0604314 2.52168 0 0 0 1 -0.905052 0.0680809 0.414377 0.24014 0.417422 0.0386358 0.90538 2.51908 0.0456294 0.996928 -0.0633861 2.51793 0 0 0 1 -0.786219 0.0685576 0.606536 0.275507 0.609323 0.0301606 0.786452 2.97185 0.0356242 0.997184 -0.0654866 2.51534 0 0 0 1 -0.579029 0.0670012 0.802351 0.303101 0.804764 0.0193874 0.579175 3.47991 0.0232504 0.997552 -0.0651466 2.5136 0 0 0 1 -0.276545 0.0618514 0.946112 0.324144 0.948033 0.00757996 0.276621 4.0254 0.00993809 0.998038 -0.0607343 2.51233 0 0 0 1 0.08269 0.0515094 0.980303 0.340194 0.981618 -0.00329329 -0.0826325 4.58764 -0.00102792 0.998645 -0.0508358 2.51109 0 0 0 1 0.421683 0.0394371 0.890289 0.353035 0.891101 -0.00938247 -0.421662 5.14458 -0.00827613 0.999157 -0.0390996 2.50945 0 0 0 1 0.680815 0.027618 0.717107 0.364535 0.717547 -0.0111377 -0.680811 5.67466 -0.0108159 0.999541 -0.0274003 2.50696 0 0 0 1 0.845534 0.0179068 0.520372 0.376495 0.52058 -0.00990996 -0.845536 6.15849 -0.00998403 0.99978 -0.0177013 2.50325 0 0 0 1 0.935067 0.010802 0.342808 0.390514 0.342893 -0.00737615 -0.935069 6.58006 -0.00757205 0.999909 -0.0106012 2.49802 0 0 0 1 0.977139 0.00597522 0.202624 0.407916 0.202653 -0.0047058 -0.97714 6.92741 -0.00488512 0.999968 -0.00580913 2.49106 0 0 0 1 0.993825 0.00288301 0.102476 0.429707 0.102484 -0.00249493 -0.993825 7.19261 -0.00260952 0.999991 -0.00277499 2.48224 0 0 0 1 0.998951 0.00106464 0.0389972 0.456595 0.0389982 -0.000974853 -0.998951 7.37133 -0.00102551 0.999998 -0.00101535 2.47149 0 0 0 1 0.999938 0.000216249 0.00803876 0.48902 0.0080388 -0.000202699 -0.999938 7.46219 -0.000214605 1 -0.000204425 2.45883 0 0 0 1 1 0 0 0.526384 0 1.78814e-07 -1 7.47013 -0 1 1.78814e-07 2.44497 0 0 0 1 1 0 0 0.567157 0 1.78814e-07 -1 7.4028 -0 1 1.78814e-07 2.43076 0 0 0 1 1 0 0 0.610368 0 1.78814e-07 -1 7.26535 -0 1 1.78814e-07 2.41505 0 0 0 1 1 0 0 0.655481 0 1.78814e-07 -1 7.07188 -0 1 1.78814e-07 2.39481 0 0 0 1 1 0 0 0.7014 0 1.78814e-07 -1 6.85278 -0 1 1.78814e-07 2.36742 0 0 0 1 1 0 0 0.746955 0 1.78814e-07 -1 6.64102 -0 1 1.78814e-07 2.332 0 0 0 1 1 0 0 0.793548 0 1.78814e-07 -1 6.4463 -0 1 1.78814e-07 2.28632 0 0 0 1 1 0 0 0.844988 0 1.78814e-07 -1 6.24466 -0 1 1.78814e-07 2.22412 0 0 0 1 1 0 0 0.892454 0 1.78814e-07 -1 6.04233 -0 1 1.78814e-07 2.15234 0 0 0 1 1 0 0 0.918897 0 -0.00582411 -0.999905 5.88547 -0 0.999905 -0.00582411 2.09362 0 0 0 1 1 0 0 0.928411 0 -0.0452025 -0.998516 5.76595 -0 0.998516 -0.0452025 2.04593 0 0 0 1 1 0 0 0.93035 0 -0.127544 -0.991448 5.67585 -0 0.991448 -0.127544 2.00475 0 0 0 1 1 0 0 0.933115 0 -0.204468 -0.978829 5.62758 -0 0.978829 -0.204468 1.97936 0 0 0 1 1 0 0 0.944942 0 -0.232996 -0.972476 5.6186 -0 0.972476 -0.232996 1.97288 0 0 0 1 1 0 0 0.971642 0 -0.226541 -0.973996 5.68405 -0 0.973996 -0.226541 1.99227 0 0 0 1 1 0 0 1.01684 0 -0.208237 -0.978078 5.86904 -0 0.978078 -0.208237 2.04708 0 0 0 1 1 0 0 1.07879 0 -0.178658 -0.983897 6.16607 -0 0.983897 -0.178658 2.13508 0 0 0 1 1 0 0 1.15155 0 -0.141011 -0.989963 6.54144 -0 0.989963 -0.141011 2.2463 0 0 0 1 1 0 0 1.22693 0 -0.100064 -0.994906 6.94727 -0 0.994906 -0.100064 2.36654 0 0 0 1 1 0 0 1.29573 0 -0.0615246 -0.998023 7.32788 -0 0.998023 -0.0615246 2.47931 0 0 0 1 1 0 0 1.35022 0 -0.0304009 -0.999476 7.63486 -0 0.999476 -0.0304009 2.57026 0 0 0 1 1 0 0 1.38566 0 -0.0099003 -0.999923 7.83708 -0 0.999923 -0.0099003 2.63017 0 0 0 1 1 0 0 1.40033 0 -0.00134527 -0.999996 7.92151 -0 0.999996 -0.00134527 2.65519 0 0 0 1 1 0 0 1.40263 0 1.78814e-07 -1 7.93479 -0 1 1.78814e-07 2.65912 0 0 0 1 1 0 0 1.40263 0 1.78814e-07 -1 7.93479 -0 1 1.78814e-07 2.65912 0 0 0 1 1 0 0 1.4026 0 1.78814e-07 -1 7.92357 -0 1 1.78814e-07 2.66118 0 0 0 1 1 0 0 1.40227 0 1.78814e-07 -1 7.88401 -0 1 1.78814e-07 2.66847 0 0 0 1 1 0 0 1.40119 0 1.78814e-07 -1 7.81929 -0 1 1.78814e-07 2.68038 0 0 0 1 1 0 0 1.39911 0 1.78814e-07 -1 7.75169 -0 1 1.78814e-07 2.69282 0 0 0 1 1 0 0 1.39594 0 1.78814e-07 -1 7.68907 -0 1 1.78814e-07 2.70435 0 0 0 1 1 0 0 1.39102 0 1.78814e-07 -1 7.62193 -0 1 1.78814e-07 2.7167 0 0 0 1 1 0 0 1.38315 0 1.78814e-07 -1 7.55641 -0 1 1.78814e-07 2.72876 0 0 0 1 1 0 0 1.37195 0 1.78814e-07 -1 7.51516 -0 1 1.78814e-07 2.73636 0 0 0 1 1 -2.91038e-11 0.000575017 1.35821 0.000575017 2.74967e-07 -0.999999 7.5118 -2.91038e-11 1 2.74966e-07 2.73768 0 0 0 1 0.999957 2.32831e-10 0.00629476 1.34231 0.00629476 -7.17991e-08 -0.999957 7.55337 2.32825e-10 1 -7.17975e-08 2.73288 0 0 0 1 0.999408 -1.86265e-09 0.0285164 1.3233 0.0285164 2.56099e-07 -0.999408 7.64026 -1.8623e-09 1 2.56052e-07 2.72107 0 0 0 1 0.996509 3.72529e-09 0.0773371 1.30064 0.0773371 -1.04075e-07 -0.996509 7.75084 3.72345e-09 1 -1.04024e-07 2.7025 0 0 0 1 0.987909 -7.45058e-09 0.150562 1.27507 0.150562 2.63564e-07 -0.987908 7.86244 -7.44548e-09 1 2.63384e-07 2.67953 0 0 0 1 0.969919 -1.49012e-08 0.239337 1.2469 0.239337 1.98372e-07 -0.969919 7.98404 -1.48864e-08 1 1.98176e-07 2.65263 0 0 0 1 0.934914 1.49012e-08 0.350078 1.21533 0.350078 -4.47035e-08 -0.934914 8.12259 1.48759e-08 1 -4.46278e-08 2.61998 0 0 0 1 0.867308 0 0.492953 1.18074 0.492953 0 -0.867308 8.25137 0 1 0 2.58202 0 0 0 1 0.75015 0 0.656689 1.14421 0.656689 1.49012e-07 -0.75015 8.34613 0 1 1.48561e-07 2.53934 0 0 0 1 0.557649 -5.96046e-08 0.823846 1.1033 0.823846 2.68221e-07 -0.557649 8.38913 -5.92967e-08 1 2.66835e-07 2.48088 0 0 0 1 0.198131 0.000593367 0.966252 1.0643 0.966226 -0.00154262 -0.198135 8.43497 0.00137298 0.999953 -0.000879021 2.44767 0 0 0 1 -0.555788 0.0291075 0.828379 1.03381 0.827572 -0.0366177 0.556541 8.57393 0.0465331 0.99889 -0.00373674 2.4777 0 0 0 1 -0.889426 0.0701411 0.447176 1.01106 0.444368 -0.0524265 0.892053 8.66714 0.0860138 0.996143 0.0154617 2.52685 0 0 0 1 -0.894569 0.0707489 0.441293 0.991759 0.43845 -0.0524939 0.897221 8.54494 0.0866427 0.996112 0.0159401 2.5551 0 0 0 1 -0.894569 0.0707489 0.441293 0.9837 0.43845 -0.0524939 0.897221 8.25284 0.0866427 0.996112 0.0159401 2.58104 0 0 0 1 -0.894569 0.0707489 0.441293 0.99741 0.43845 -0.0524939 0.897221 7.97809 0.0866427 0.996112 0.0159401 2.6168 0 0 0 1 -0.894569 0.0707489 0.441293 1.01289 0.43845 -0.0524939 0.897221 7.50778 0.0866427 0.996112 0.0159401 2.6457 0 0 0 1 -0.881787 0.0772478 0.465114 0.96572 0.461501 -0.0604893 0.884994 6.68345 0.0964988 0.995165 0.0176894 2.66123 0 0 0 1 -0.797012 0.108888 0.589701 0.817639 0.580193 -0.107253 0.80427 5.51235 0.150841 0.987881 0.022319 2.6721 0 0 0 1 0.547977 -0.35164 0.0957051 0.592738 -0.0654094 -0.568233 -0.513001 4.15089 0.227751 0.682863 -0.377602 2.67945 0 0 0 1 -0.486258 -0.219713 -0.236985 0.35326 -0.234043 0.118166 0.538832 2.8754 -0.0862515 0.918031 -0.126075 2.68344 0 0 0 1 -0.988475 -0.0994005 -0.0780522 0.16761 -0.0847071 0.0650253 0.991082 1.95501 -0.0934531 0.992442 -0.0727535 2.68504 0 0 0 1 -0.997147 -0.0734384 -0.00793498 0.0784073 -0.0119967 0.0550398 0.998302 1.53015 -0.0728773 0.995763 -0.0557652 2.68542 0 0 0 1 -0.997553 -0.0698889 0.00187292 0.0599147 -0.00187293 0.0534933 0.998567 1.44392 -0.069889 0.996119 -0.0534931 2.68546 0 0 0 1 -0.997553 -0.0698889 0.00187292 0.0599147 -0.00187293 0.0534933 0.998567 1.44392 -0.069889 0.996119 -0.0534931 2.68546 0 0 0 1 </float_array>
     <technique_common>
      <accessor source="#id-anim-55-array" count="107" stride="16">
       <param name="TRANSFORM" type="float4x4"/>
      </accessor>
     </technique_common>
    </source>
    <sampler id="id-anim-56">
     <input semantic="INPUT" source="#genericSource2"/>
     <input semantic="OUTPUT" source="#genericSource4"/>
    </sampler>
    <channel source="#id-anim-56" target="id-bone-3/SID_1"/>
   </animation>
  </animation>
 </library_animations>
 <library_visual_scenes>
  <visual_scene id="scene7">
   <node id="rig.ball" name="rig_ball">
    <matrix>0.1699977 0 0 0 0 0.17 0 -0.085 0 0 0.1699977 0 0 0 0 1 </matrix>
    <node id="id-bone-3" name="ball">
     <matrix sid="SID_1">1 0 0 -1.402632 0 1.788139e-07 -0.9999999 7.934787 -0 0.9999999 1.788139e-07 2.65912 0 0 0 1 </matrix>
    </node>
   </node>
  </visual_scene>
 </library_visual_scenes>
 <scene>
  <instance_visual_scene url="#scene7"/>
 </scene>
</COLLADA>
